single.vcd
$date
	Mon Nov 10 12:27:23 2025
$end
$version
	Icarus Verilog
$end
$timescale
	1s
$end
$scope module tb $end
$var wire 1 ! halt $end
$var reg 1 " clk $end
$var reg 1 # exit $end
$var reg 640 $ mem_in_fname [639:0] $end
$var reg 640 % mem_out_fname [639:0] $end
$var reg 640 & regs_in_fname [639:0] $end
$var reg 640 ' regs_out_fname [639:0] $end
$var reg 1 ( rst $end
$var reg 640 ) signal_dump_fname [639:0] $end
$scope module CPU $end
$var wire 1 " clk $end
$var wire 1 ! halt $end
$var wire 1 * memory_alignment_error $end
$var wire 1 ( rst $end
$var wire 1 + valid_op $end
$var wire 7 , opcode [6:0] $end
$var wire 1 - invalid_op $end
$var wire 20 . imm_u_type [19:0] $end
$var wire 32 / imm_j_type [31:0] $end
$var wire 20 0 imm_i_type [19:0] $end
$var wire 7 1 imm_front_s_type [6:0] $end
$var wire 5 2 imm_back_s_type [4:0] $end
$var wire 32 3 imm_b_type [31:0] $end
$var wire 7 4 funct7 [6:0] $end
$var wire 3 5 funct3 [2:0] $end
$var wire 32 6 eu_out [31:0] $end
$var wire 7 7 eu_funct7_in [6:0] $end
$var wire 3 8 eu_funct3_in [2:0] $end
$var wire 4 9 cur_inst_type [3:0] $end
$var wire 32 : StoreData_in [31:0] $end
$var wire 5 ; Rsrc2 [4:0] $end
$var wire 5 < Rsrc1 [4:0] $end
$var wire 5 = Rdst [4:0] $end
$var wire 32 > Rdata2_in [31:0] $end
$var wire 32 ? Rdata2 [31:0] $end
$var wire 32 @ Rdata1 [31:0] $end
$var wire 32 A RWrdata [31:0] $end
$var wire 1 B RWrEn $end
$var wire 32 C PC_Plus_4 [31:0] $end
$var wire 32 D PC [31:0] $end
$var wire 32 E NPC [31:0] $end
$var wire 1 F MemWrEn $end
$var wire 2 G MemSize [1:0] $end
$var wire 32 H InstWord [31:0] $end
$var wire 32 I DataWord [31:0] $end
$var wire 32 J DataAddr [31:0] $end
$scope module EU $end
$var wire 7 K auxFunc [6:0] $end
$var wire 3 L func [2:0] $end
$var wire 32 M opB [31:0] $end
$var wire 32 N sA [31:0] $end
$var wire 32 O sB [31:0] $end
$var wire 32 P uA [31:0] $end
$var wire 32 Q uB [31:0] $end
$var wire 64 R uB_new [63:0] $end
$var wire 64 S zext_uB [63:0] $end
$var wire 64 T sextsA [63:0] $end
$var wire 32 U rem_r_unsigned [31:0] $end
$var wire 32 V rem_r_signed [31:0] $end
$var wire 32 W out [31:0] $end
$var wire 32 X opA [31:0] $end
$var wire 64 Y mul_uu [63:0] $end
$var wire 64 Z mul_su [63:0] $end
$var wire 64 [ mul_ss [63:0] $end
$var wire 32 \ div_q_unsigned [31:0] $end
$var wire 32 ] div_q_signed [31:0] $end
$var wire 1 ^ div_by_zero $end
$upscope $end
$scope module MEM $end
$var wire 1 " CLK $end
$var wire 32 _ DataAddr [31:0] $end
$var wire 32 ` DataAddrH [31:0] $end
$var wire 32 a DataAddrW [31:0] $end
$var wire 32 b DataIn [31:0] $end
$var wire 2 c DataSize [1:0] $end
$var wire 32 d InstAddrW [31:0] $end
$var wire 1 F WE $end
$var wire 32 e InstOut [31:0] $end
$var wire 32 f InstAddr [31:0] $end
$var wire 32 g DataOut [31:0] $end
$upscope $end
$scope module PC_REG $end
$var wire 1 " CLK $end
$var wire 32 h Din [31:0] $end
$var wire 1 ( RST $end
$var wire 1 i WE $end
$var reg 32 j Qout [31:0] $end
$upscope $end
$scope module RF $end
$var wire 5 k AddrA [4:0] $end
$var wire 5 l AddrB [4:0] $end
$var wire 5 m AddrW [4:0] $end
$var wire 1 " CLK $end
$var wire 32 n DataInW [31:0] $end
$var wire 1 B WenW $end
$var wire 32 o DataOutB [31:0] $end
$var wire 32 p DataOutA [31:0] $end
$upscope $end
$upscope $end
$upscope $end
$enddefinitions $end
#0
$dumpvars
b1111 p
b10000000000000000000000000000000 o
b10000000000000000000000000000000 n
b101 m
b1 l
b11 k
b0 j
1i
b100 h
b10110011101100111011001110110011 g
b0 f
b10000100011000001010110011 e
b0 d
b0 c
b0 b
b0 a
b0 `
b0 _
0^
b0 ]
b0 \
b1111111111111111111111111111100010000000000000000000000000000000 [
b11110000000000000000000000000000000 Z
b11110000000000000000000000000000000 Y
b1111 X
b10000000000000000000000000000000 W
b1111 V
b1111 U
b1111 T
b10000000000000000000000000000000 S
b10000000000000000000000000000000 R
b10000000000000000000000000000000 Q
b1111 P
b10000000000000000000000000000000 O
b1111 N
b10000000000000000000000000000000 M
b0 L
b1 K
b0 J
b10110011101100111011001110110011 I
b10000100011000001010110011 H
b0 G
0F
b100 E
b0 D
b100 C
1B
b10000000000000000000000000000000 A
b1111 @
b10000000000000000000000000000000 ?
b10000000000000000000000000000000 >
b101 =
b11 <
b1 ;
b0 :
b0 9
b0 8
b1 7
b10000000000000000000000000000000 6
b0 5
b1 4
b100000100100 3
b101 2
b1 1
b100001 0
b11000100000100000 /
b10000100011000 .
1-
b110011 ,
1+
0*
b1110011011010010110111001100111011011000110010100101110011101100110001101100100 )
1(
b11100100110010101100111011100110101111101101111011101010111010000101110011010000110010101111000 '
b111001001100101011001110111001101011111011010010110111000101110011010000110010101111000 &
b110110101100101011011010101111101101111011101010111010000101110011010000110010101111000 %
b1101101011001010110110101101101011101010110110000101110011010000110010101111000 $
0#
0"
0!
$end
#5
1"
#10
b11111111111111111111111111111000 A
b11111111111111111111111111111000 n
b11111111111111111111111111111000 6
b11111111111111111111111111111000 W
b1 8
b1 L
b1000 E
b1000 h
b10000100011001 .
b1 5
b100110 3
b110 2
b110 =
b110 m
b10000100011001001100110011 H
b10000100011001001100110011 e
b100 d
b11001100000100100 /
b1000 C
b100 D
b100 f
b100 j
0"
#15
1"
#20
b111111111111111111111011111111 A
b111111111111111111111011111111 n
b111111111111111111111011111111 6
b111111111111111111111011111111 W
b111111111111111111111111111111 R
b111111111111111111111111111111 S
b111111111111111111111111111111 O
b111111111111111111111111111111 Q
b111111111111111111111111111111 >
b111111111111111111111111111111 M
b0 8
b0 L
b100000001 V
b1100 E
b1100 h
b100000001 U
b111111111111111111111111111111 ?
b111111111111111111111111111111 o
b100000000111111111111111111111011111111 Y
b100000001 P
b100000000111111111111111111111011111111 Z
b100000001 T
b100000000111111111111111111111011111111 [
b100000001 N
b100000001 @
b100000001 X
b100000001 p
b101011 0
b1011 ;
b1011 l
b10101100010000 .
b0 5
b10 <
b10 k
b100000100110 3
b111 2
b111 =
b111 m
b10101100010000001110110011 H
b10101100010000001110110011 e
b1000 d
b10000100000110010 /
b1100 C
b1000 D
b1000 f
b1000 j
0"
#25
1"
#30
b1000000 A
b1000000 n
b1000000 6
b1000000 W
b11 8
b11 L
b10000 E
b10000 h
b10101100010011 .
b11 5
b101000 3
b1000 2
b1000 =
b1000 m
b10101100010011010000110011 H
b10101100010011010000110011 e
b1100 d
b10011100000110110 /
b10000 C
b1100 D
b1100 f
b1100 j
0"
#35
1"
#40
b10000000000000000000000000000000 A
b10000000000000000000000000000000 n
b10000000000000000000000000000000 6
b10000000000000000000000000000000 W
b10000000000000000000000000000000 R
b10000000000000000000000000000000 S
b10000000000000000000000000000000 O
b10000000000000000000000000000000 Q
b10000000000000000000000000000000 >
b10000000000000000000000000000000 M
b0 8
b0 L
b0 ]
b111111111111111111111111111111 V
b10100 E
b10100 h
b0 \
b111111111111111111111111111111 U
b10000000000000000000000000000000 ?
b10000000000000000000000000000000 o
b1111111111111111111111111111110000000000000000000000000000000 Y
b111111111111111111111111111111 P
b1111111111111111111111111111110000000000000000000000000000000 Z
b111111111111111111111111111111 T
b1110000000000000000000000000000010000000000000000000000000000000 [
b111111111111111111111111111111 N
b111111111111111111111111111111 @
b111111111111111111111111111111 X
b111111111111111111111111111111 p
b100001 0
b1 ;
b1 l
b10000101011000 .
b0 5
b1011 <
b1011 k
b100000101000 3
b1001 2
b1001 =
b1001 m
b10000101011000010010110011 H
b10000101011000010010110011 e
b10000 d
b1011000100000110000 /
b10100 C
b10000 D
b10000 f
b10000 j
0"
#45
1"
#50
b11100000000000000000000000000000 A
b11100000000000000000000000000000 n
b11100000000000000000000000000000 6
b11100000000000000000000000000000 W
b111111111111111111111111111111 R
b111111111111111111111111111111 S
b111111111111111111111111111111 O
b111111111111111111111111111111 Q
b111111111111111111111111111111 >
b111111111111111111111111111111 M
b10 8
b10 L
b10 ]
b11111111111111111111111111111110 V
b11000 E
b11000 h
b10 \
b10 U
b111111111111111111111111111111 ?
b111111111111111111111111111111 o
b1111111111111111111111111111110000000000000000000000000000000 Y
b10000000000000000000000000000000 P
b1110000000000000000000000000000010000000000000000000000000000000 Z
b1111111111111111111111111111111110000000000000000000000000000000 T
b1110000000000000000000000000000010000000000000000000000000000000 [
b10000000000000000000000000000000 N
b10000000000000000000000000000000 @
b10000000000000000000000000000000 X
b10000000000000000000000000000000 p
b101011 0
b1011 ;
b1011 l
b1 <
b1 k
b10101100001010 .
b10 5
b101010 3
b1010 2
b1010 =
b1010 m
b10101100001010010100110011 H
b10101100001010010100110011 e
b10100 d
b1010100000111110 /
b11000 C
b10100 D
b10100 f
b10100 j
0"
#55
1"
#60
b0 A
b0 n
b0 6
b0 W
b100000001 R
b100000001 S
b100000001 O
b100000001 Q
b100000001 >
b100000001 M
b100 8
b100 L
b0 ]
b1111 V
b11100 E
b11100 h
b0 \
b1111 U
b100000001 ?
b100000001 o
b111100001111 Y
b1111 P
b111100001111 Z
b1111 T
b111100001111 [
b1111 N
b1111 @
b1111 X
b1111 p
b100010 0
b10 ;
b10 l
b11 <
b11 k
b100000 3
b0 2
b10001000011100 .
b100 5
b0 =
b0 m
b10001000011100000000110011 H
b10001000011100000000110011 e
b11000 d
b11100000000111010 /
b11100 C
b11000 D
b11000 f
b11000 j
0"
#65
1"
#70
b101 8
b101 L
b100000 E
b100000 h
b10001000011101 .
b101 5
b10001000011101000000110011 H
b10001000011101000000110011 e
b11100 d
b11101000000111110 /
b100000 C
b11100 D
b11100 f
b11100 j
0"
#75
1"
#80
b1111 A
b1111 n
b1111 6
b1111 W
b110 8
b110 L
b100100 E
b100100 h
b10001000011110 .
b110 5
b10001000011110000000110011 H
b10001000011110000000110011 e
b100000 d
b11110000001000010 /
b100100 C
b100000 D
b100000 f
b100000 j
0"
#85
1"
#90
b111 8
b111 L
b101000 E
b101000 h
b10001000011111 .
b111 5
b10001000011111000000110011 H
b10001000011111000000110011 e
b100100 d
b11111000001000110 /
b101000 C
b100100 D
b100100 f
b100100 j
0"
#95
1"
#100
b0 A
b0 n
0B
b0 6
b0 W
b11111111111111111111111111111111 ]
b11111111111111111111111111111111 \
b0 `
b0 a
b10110011101100111011001110110011 I
b10110011101100111011001110110011 g
b0 R
b0 S
b0 O
b0 Q
1^
b0 >
b0 M
b0 J
b0 _
b0 8
b0 L
b0 V
b101100 E
b101100 h
b0 7
b0 K
b0 U
0!
1F
b11111111111111111111111111011101 :
b11111111111111111111111111011101 b
b11011101110111011101110111011101 ?
b11011101110111011101110111011101 o
b0 Y
b0 P
b0 Z
b0 T
b0 [
b0 N
b0 @
b0 X
b0 p
1+
b0 3
b0 1
b0 4
b1100 0
b1100 ;
b1100 l
b1101 <
b1101 k
b110001101000 .
b0 5
b100011 ,
b110001101000000000100011 H
b110001101000000000100011 e
b101000 d
b1101000000000110100 /
b101100 C
b101000 D
b101000 f
b101000 j
0"
#105
1"
#110
b100 `
b100 a
b100 J
b100 _
b1 G
b1 c
b100 6
b100 W
b0 ]
b0 \
b0 V
b100 R
b100 S
b100 O
b100 Q
0^
b100 >
b100 M
b110000 E
b110000 h
b11111111111111111101110111011101 :
b11111111111111111101110111011101 b
b100 3
b100 2
b110001101001 .
b1 5
b100 =
b100 m
b10010011001100111001001100110011 I
b10010011001100111001001100110011 g
b110001101001001000100011 H
b110001101001001000100011 e
b101100 d
b1101001000000111000 /
b110000 C
b101100 D
b101100 f
b101100 j
0"
#115
1"
#120
b1000 `
b1000 a
b1000 J
b1000 _
b10 G
b10 c
b1000 6
b1000 W
b1000 R
b1000 S
b1000 O
b1000 Q
b1000 >
b1000 M
b11011101110111011101110111011101 :
b11011101110111011101110111011101 b
b110100 E
b110100 h
b10101100010000001110110011 I
b10101100010000001110110011 g
b1000 3
b1000 2
b110001101010 .
b10 5
b1000 =
b1000 m
b110001101010010000100011 H
b110001101010010000100011 e
b110000 d
b1101010000000111100 /
b110100 C
b110000 D
b110000 f
b110000 j
0"
#125
1"
#130
b0 A
b0 n
1B
b0 G
b0 c
b0 6
b0 W
b11111111111111111111111111111111 ]
b11111111111111111111111111111111 \
b0 :
b0 b
b0 `
b0 a
b0 R
b0 S
b0 O
b0 Q
1^
b0 >
b0 M
b0 J
b0 _
b111000 E
b111000 h
0F
b0 ?
b0 o
b11011101110111011101110111011101 I
b11011101110111011101110111011101 g
b0 0
b0 ;
b0 l
b0 3
b0 2
b0 .
b0 5
b0 <
b0 k
b0 =
b0 m
b10011 ,
b10011 H
b10011 e
b110100 d
b110100 /
b111000 C
b110100 D
b110100 f
b110100 j
0"
#135
1"
#140
b111100 E
b111100 h
b111000 d
b111000 /
b111100 C
b111000 D
b111000 f
b111000 j
0"
#145
1"
#150
b1000000 E
b1000000 h
b111100 d
b111100 /
b1000000 C
b111100 D
b111100 f
b111100 j
0"
#155
1"
#160
b1000100 E
b1000100 h
b1000000 d
b1000000 /
b1000100 C
b1000000 D
b1000000 f
b1000000 j
0"
#165
1"
#170
b1001000 E
b1001000 h
b1000100 d
b1000100 /
b1001000 C
b1000100 D
b1000100 f
b1000100 j
0"
#175
1"
#180
b1001100 E
b1001100 h
b1001000 d
b1001000 /
b1001100 C
b1001000 D
b1001000 f
b1001000 j
0"
#185
1"
#190
b1010000 E
b1010000 h
b1001100 d
b1001100 /
b1010000 C
b1001100 D
b1001100 f
b1001100 j
0"
#195
1"
#200
b1010100 E
b1010100 h
b1010000 d
b1010000 /
b1010100 C
b1010000 D
b1010000 f
b1010000 j
0"
#205
1"
#210
b1011000 E
b1011000 h
b1010100 d
b1010100 /
b1011000 C
b1010100 D
b1010100 f
b1010100 j
0"
#215
1"
#220
b1011100 E
b1011100 h
b1011000 d
b1011000 /
b1011100 C
b1011000 D
b1011000 f
b1011000 j
0"
#225
1"
#230
b1100000 E
b1100000 h
b1011100 d
b1011100 /
b1100000 C
b1011100 D
b1011100 f
b1011100 j
0"
#235
1"
#240
b1100100 E
b1100100 h
b1100000 d
b1100000 /
b1100100 C
b1100000 D
b1100000 f
b1100000 j
0"
#245
1"
#250
b1101000 E
b1101000 h
b1100100 d
b1100100 /
b1101000 C
b1100100 D
b1100100 f
b1100100 j
0"
#255
1"
#260
b1101100 E
b1101100 h
b1101000 d
b1101000 /
b1101100 C
b1101000 D
b1101000 f
b1101000 j
0"
#265
1"
#270
b1110000 E
b1110000 h
b1101100 d
b1101100 /
b1110000 C
b1101100 D
b1101100 f
b1101100 j
0"
#275
1"
#280
b1110100 E
b1110100 h
b1110000 d
b1110000 /
b1110100 C
b1110000 D
b1110000 f
b1110000 j
0"
#285
1"
#290
b1111000 E
b1111000 h
b1110100 d
b1110100 /
b1111000 C
b1110100 D
b1110100 f
b1110100 j
0"
#295
1"
#300
b1111100 E
b1111100 h
b1111000 d
b1111000 /
b1111100 C
b1111000 D
b1111000 f
b1111000 j
0"
#305
1"
#310
b10000000 E
b10000000 h
b1111100 d
b1111100 /
b10000000 C
b1111100 D
b1111100 f
b1111100 j
0"
#315
1"
#320
b10000100 E
b10000100 h
b10000000 d
b10000000 /
b10000100 C
b10000000 D
b10000000 f
b10000000 j
0"
#325
1"
#330
b10001000 E
b10001000 h
b10000100 d
b10000100 /
b10001000 C
b10000100 D
b10000100 f
b10000100 j
0"
#335
1"
#340
b10001100 E
b10001100 h
b10001000 d
b10001000 /
b10001100 C
b10001000 D
b10001000 f
b10001000 j
0"
#345
1"
#350
b10010000 E
b10010000 h
b10001100 d
b10001100 /
b10010000 C
b10001100 D
b10001100 f
b10001100 j
0"
#355
1"
#360
b10010100 E
b10010100 h
b10010000 d
b10010000 /
b10010100 C
b10010000 D
b10010000 f
b10010000 j
0"
#365
1"
#370
b10011000 E
b10011000 h
b10010100 d
b10010100 /
b10011000 C
b10010100 D
b10010100 f
b10010100 j
0"
#375
1"
#380
b10011100 E
b10011100 h
b10011000 d
b10011000 /
b10011100 C
b10011000 D
b10011000 f
b10011000 j
0"
#385
1"
#390
b10100000 E
b10100000 h
b10011100 d
b10011100 /
b10100000 C
b10011100 D
b10011100 f
b10011100 j
0"
#395
1"
#400
b10100100 E
b10100100 h
b10100000 d
b10100000 /
b10100100 C
b10100000 D
b10100000 f
b10100000 j
0"
#405
1"
#410
b10101000 E
b10101000 h
b10100100 d
b10100100 /
b10101000 C
b10100100 D
b10100100 f
b10100100 j
0"
#415
1"
#420
b10101100 E
b10101100 h
b10101000 d
b10101000 /
b10101100 C
b10101000 D
b10101000 f
b10101000 j
0"
#425
1"
#430
b10110000 E
b10110000 h
b10101100 d
b10101100 /
b10110000 C
b10101100 D
b10101100 f
b10101100 j
0"
#435
1"
#440
b10110100 E
b10110100 h
b10110000 d
b10110000 /
b10110100 C
b10110000 D
b10110000 f
b10110000 j
0"
#445
1"
#450
b10111000 E
b10111000 h
b10110100 d
b10110100 /
b10111000 C
b10110100 D
b10110100 f
b10110100 j
0"
#455
1"
#460
b10111100 E
b10111100 h
b10111000 d
b10111000 /
b10111100 C
b10111000 D
b10111000 f
b10111000 j
0"
#465
1"
#470
b11000000 E
b11000000 h
b10111100 d
b10111100 /
b11000000 C
b10111100 D
b10111100 f
b10111100 j
0"
#475
1"
#480
b11000100 E
b11000100 h
b11000000 d
b11000000 /
b11000100 C
b11000000 D
b11000000 f
b11000000 j
0"
#485
1"
#490
b11001000 E
b11001000 h
b11000100 d
b11000100 /
b11001000 C
b11000100 D
b11000100 f
b11000100 j
0"
#495
1"
#500
b11001100 E
b11001100 h
b11001000 d
b11001000 /
b11001100 C
b11001000 D
b11001000 f
b11001000 j
0"
#505
1"
#510
b11010000 E
b11010000 h
b11001100 d
b11001100 /
b11010000 C
b11001100 D
b11001100 f
b11001100 j
0"
#515
1"
#520
b11010100 E
b11010100 h
b11010000 d
b11010000 /
b11010100 C
b11010000 D
b11010000 f
b11010000 j
0"
#525
1"
#530
b11011000 E
b11011000 h
b11010100 d
b11010100 /
b11011000 C
b11010100 D
b11010100 f
b11010100 j
0"
#535
1"
#540
b11011100 E
b11011100 h
b11011000 d
b11011000 /
b11011100 C
b11011000 D
b11011000 f
b11011000 j
0"
#545
1"
#550
b11100000 E
b11100000 h
b11011100 d
b11011100 /
b11100000 C
b11011100 D
b11011100 f
b11011100 j
0"
#555
1"
#560
b11100100 E
b11100100 h
b11100000 d
b11100000 /
b11100100 C
b11100000 D
b11100000 f
b11100000 j
0"
#565
1"
#570
b11101000 E
b11101000 h
b11100100 d
b11100100 /
b11101000 C
b11100100 D
b11100100 f
b11100100 j
0"
#575
1"
#580
b11101100 E
b11101100 h
b11101000 d
b11101000 /
b11101100 C
b11101000 D
b11101000 f
b11101000 j
0"
#585
1"
#590
b11110000 E
b11110000 h
b11101100 d
b11101100 /
b11110000 C
b11101100 D
b11101100 f
b11101100 j
0"
#595
1"
#600
b11110100 E
b11110100 h
b11110000 d
b11110000 /
b11110100 C
b11110000 D
b11110000 f
b11110000 j
0"
#605
1"
#610
b11111000 E
b11111000 h
b11110100 d
b11110100 /
b11111000 C
b11110100 D
b11110100 f
b11110100 j
0"
#615
1"
#620
b11111100 E
b11111100 h
b11111000 d
b11111000 /
b11111100 C
b11111000 D
b11111000 f
b11111000 j
0"
#625
1"
#630
b100000000 E
b100000000 h
b11111100 d
b11111100 /
b100000000 C
b11111100 D
b11111100 f
b11111100 j
0"
#635
1"
#640
0B
1!
b100000100 E
b100000100 h
0+
b1110011 ,
b1110011 H
b1110011 e
b100000000 d
b100000000 /
b100000100 C
b100000000 D
b100000000 f
b100000000 j
0"
#645
1"
#650
x*
bx 8
bx L
bx0 `
bx00 a
bx I
bx g
bx G
bx c
bx ]
bx \
bx :
bx b
bx J
bx _
b0xxxxxxxxxxxxxxxxxxxxxxxxxxxxxxxx R
b0xxxxxxxxxxxxxxxxxxxxxxxxxxxxxxxx S
bx O
bx Q
x^
bx >
bx M
bx A
bx n
bx 6
bx W
bx U
bx V
bx E
bx h
x!
x-
xF
xB
bx 7
bx K
bx ?
bx o
bx Y
bx P
bx Z
bx T
bx [
bx N
bx @
bx X
bx p
x+
b0xx 9
bx 1
bx 4
b0xxxxxxxxxxxx 0
bx ;
bx l
bx .
bx 5
bx <
bx k
bx0 3
bx 2
bx =
bx m
bx ,
bx H
bx e
b100000100 d
bx /
b100001000 C
b100000100 D
b100000100 f
b100000100 j
1#
0"
