single.vcd
$date
	Sat Nov  8 22:35:07 2025
$end
$version
	Icarus Verilog
$end
$timescale
	1s
$end
$scope module tb $end
$var wire 1 ! halt $end
$var reg 1 " clk $end
$var reg 1 # exit $end
$var reg 640 $ mem_in_fname [639:0] $end
$var reg 640 % mem_out_fname [639:0] $end
$var reg 640 & regs_in_fname [639:0] $end
$var reg 640 ' regs_out_fname [639:0] $end
$var reg 1 ( rst $end
$var reg 640 ) signal_dump_fname [639:0] $end
$scope module CPU $end
$var wire 1 " clk $end
$var wire 1 ( rst $end
$var wire 1 * valid_op $end
$var wire 7 + opcode [6:0] $end
$var wire 1 , invalid_op $end
$var wire 20 - imm_u_type [19:0] $end
$var wire 32 . imm_j_type [31:0] $end
$var wire 20 / imm_i_type [19:0] $end
$var wire 7 0 imm_front_s_type [6:0] $end
$var wire 5 1 imm_back_s_type [4:0] $end
$var wire 32 2 imm_b_type [31:0] $end
$var wire 1 ! halt $end
$var wire 7 3 funct7 [6:0] $end
$var wire 3 4 funct3 [2:0] $end
$var wire 32 5 eu_out [31:0] $end
$var wire 7 6 eu_funct7_in [6:0] $end
$var wire 3 7 eu_funct3_in [2:0] $end
$var wire 4 8 cur_inst_type [3:0] $end
$var wire 32 9 StoreData_in [31:0] $end
$var wire 5 : Rsrc2 [4:0] $end
$var wire 5 ; Rsrc1 [4:0] $end
$var wire 5 < Rdst [4:0] $end
$var wire 32 = Rdata2_in [31:0] $end
$var wire 32 > Rdata2 [31:0] $end
$var wire 32 ? Rdata1 [31:0] $end
$var wire 32 @ RWrdata [31:0] $end
$var wire 1 A RWrEn $end
$var wire 32 B PC_Plus_4 [31:0] $end
$var wire 32 C PC [31:0] $end
$var wire 32 D NPC [31:0] $end
$var wire 1 E MemWrEn $end
$var wire 2 F MemSize [1:0] $end
$var wire 32 G InstWord [31:0] $end
$var wire 32 H DataWord [31:0] $end
$var wire 32 I DataAddr [31:0] $end
$var parameter 3 J B_TYPE $end
$var parameter 3 K I_TYPE $end
$var parameter 3 L R_TYPE $end
$var parameter 3 M S_TYPE $end
$var parameter 3 N U_TYPE $end
$scope module EU $end
$var wire 7 O auxFunc [6:0] $end
$var wire 3 P func [2:0] $end
$var wire 32 Q opB [31:0] $end
$var wire 32 R out [31:0] $end
$var wire 32 S opA [31:0] $end
$var parameter 7 T FUNC_0 $end
$var parameter 7 U FUNC_1 $end
$var parameter 3 V OP_ADD $end
$var parameter 3 W OP_AND $end
$var parameter 3 X OP_OR $end
$var parameter 3 Y OP_SLL $end
$var parameter 3 Z OP_SLT $end
$var parameter 3 [ OP_SLTU $end
$var parameter 3 \ OP_SRA $end
$var parameter 3 ] OP_SRL $end
$var parameter 3 ^ OP_SUB $end
$var parameter 3 _ OP_XOR $end
$upscope $end
$scope module MEM $end
$var wire 1 " CLK $end
$var wire 32 ` DataAddr [31:0] $end
$var wire 32 a DataAddrH [31:0] $end
$var wire 32 b DataAddrW [31:0] $end
$var wire 32 c DataIn [31:0] $end
$var wire 2 d DataSize [1:0] $end
$var wire 32 e InstAddrW [31:0] $end
$var wire 1 E WE $end
$var wire 32 f InstOut [31:0] $end
$var wire 32 g InstAddr [31:0] $end
$var wire 32 h DataOut [31:0] $end
$upscope $end
$scope module PC_REG $end
$var wire 1 " CLK $end
$var wire 32 i Din [31:0] $end
$var wire 1 ( RST $end
$var wire 1 j WE $end
$var parameter 32 k init $end
$var parameter 32 l width $end
$var reg 32 m Qout [31:0] $end
$upscope $end
$scope module RF $end
$var wire 5 n AddrA [4:0] $end
$var wire 5 o AddrB [4:0] $end
$var wire 5 p AddrW [4:0] $end
$var wire 1 " CLK $end
$var wire 32 q DataInW [31:0] $end
$var wire 1 A WenW $end
$var wire 32 r DataOutB [31:0] $end
$var wire 32 s DataOutA [31:0] $end
$upscope $end
$upscope $end
$upscope $end
$enddefinitions $end
$comment Show the parameter values. $end
$dumpall
b100000 l
b0 k
b100 _
b0 ^
b101 ]
b101 \
b11 [
b10 Z
b1 Y
b110 X
b111 W
b0 V
b100000 U
b0 T
b11 N
b10 M
b0 L
b1 K
b11 J
$end
#0
$dumpvars
b0 s
b0 r
b10010001101000101000000000000 q
b101 p
b11 o
b1000 n
b0 m
1j
b100 i
b10110111101101111011011110110111 h
b0 g
b10010001101000101001010110111 f
b0 e
b0 d
b0 c
b0 b
b0 a
b0 `
b0 S
b0 R
b0 Q
b101 P
b0 O
b0 I
b10110111101101111011011110110111 H
b10010001101000101001010110111 G
b0 F
0E
b100 D
b0 C
b100 B
1A
b10010001101000101000000000000 @
b0 ?
b0 >
b0 =
b101 <
b1000 ;
b11 :
b0 9
b11 8
b101 7
b0 6
b0 5
b101 4
b1001 3
b100100100100 2
b101 1
b1001 0
b100100011 /
b1000101100100100010 .
b10010001101000101 -
1,
b110111 +
1*
b1110011011010010110111001100111011011000110010100101110011101100110001101100100 )
1(
b11100100110010101100111011100110101111101101111011101010111010000101110011010000110010101111000 '
b111001001100101011001110111001101011111011010010110111000101110011010000110010101111000 &
b110110101100101011011010101111101101111011101010111010000101110011010000110010101111000 %
b1101101011001010110110101011111011010010110111000101110011010000110010101111000 $
0#
0"
0!
$end
#5
1"
#10
b1 7
b1 P
b1000 D
b1000 i
1A
b0 8
b10000000000000000 @
b10000000000000000 q
b0 0
b0 3
b0 /
b0 :
b0 o
b0 ;
b0 n
b1 -
b1 4
b1010 2
b1010 1
b1010 <
b1010 p
b10111 +
b1010100010111 G
b1010100010111 f
b100 e
b1000000000100 .
b1000 B
b100 C
b100 g
b100 m
0"
#15
1"
#20
b0 7
b0 P
1A
b100000 D
b100000 i
b11000 /
b11000 :
b11000 o
b1100000000000 -
b0 4
b100000000000 2
b1 1
b1 <
b1 p
b1101111 +
b1100 @
b1100 q
b1100000000000000011101111 G
b1100000000000000011101111 f
b1000 e
b100000 .
b1100 B
b1000 C
b1000 g
b1000 m
0"
#25
1"
#30
1A
b1100 5
b1100 R
b1100 ?
b1100 S
b1100 s
b100100 @
b100100 q
b1100000001000 -
b1 ;
b1 n
b10 2
b10 1
b10 <
b10 p
b1100111 +
b100100 D
b100100 i
b1100000001000000101100111 G
b1100000001000000101100111 f
b100000 e
b100100 .
b100100 B
b100000 C
b100000 g
b100000 m
0"
#35
1"
#40
b10010001101000101000000000000 =
b10010001101000101000000000000 Q
0A
b11101101110010111011000000000000 5
b11101101110010111011000000000000 R
b101000 D
b101000 i
b100000 6
b100000 O
b0 @
b0 q
b10010001101000101000000000000 >
b10010001101000101000000000000 r
b0 ?
b0 S
b0 s
b11000100001001000 .
b1 0
b1 3
b100101 /
b10010100011000 -
b101 :
b101 o
b11 ;
b11 n
b100000 2
b0 1
b0 <
b0 p
b1100011 +
b10010100011000000001100011 G
b10010100011000000001100011 f
b100100 e
b101000 B
b100100 C
b100100 g
b100100 m
0"
#45
1"
#50
b0 5
b0 R
b0 =
b0 Q
b1001000 D
b1001000 i
b0 >
b0 r
b100011 /
b11 :
b11 o
b10001100100000 -
b100 ;
b100 n
b10001100100000000001100011 G
b10001100100000000001100011 f
b101000 e
b100000100001001010 .
b101100 B
b101000 C
b101000 g
b101000 m
0"
#55
1"
#60
b1100 =
b1100 Q
b10 7
b10 P
b0 5
b0 R
b0 6
b0 O
b1100 >
b1100 r
b100100 ?
b100100 S
b100100 s
b100001 /
b1 :
b1 o
b10 ;
b10 n
b10000100010100 -
b100 4
b1001100 D
b1001100 i
b10000100010100000001100011 G
b10000100010100000001100011 f
b1001000 e
b10100100001101000 .
b1001100 B
b1001000 C
b1001000 g
b1001000 m
0"
#65
1"
#70
b1 5
b1 R
b100100 =
b100100 Q
b1011100 D
b1011100 i
b100100 >
b100100 r
b1100 ?
b1100 S
b1100 s
b0 0
b0 3
b10 /
b10 :
b10 o
b10000 2
b10000 1
b1000001100 -
b1 ;
b1 n
b10000 <
b10000 p
b1000001100100001100011 G
b1000001100100001100011 f
b1001100 e
b1100000001001110 .
b1010000 B
b1001100 C
b1001100 g
b1001100 m
0"
#75
1"
#80
b10010001101000101000000000000 =
b10010001101000101000000000000 Q
b1100000 D
b1100000 i
b10010001101000101000000000000 >
b10010001101000101000000000000 r
b1 0
b1 3
b100101 /
b101 :
b101 o
b100000 2
b0 1
b10010100001101 -
b101 4
b0 <
b0 p
b10010100001101000001100011 G
b10010100001101000001100011 f
b1011100 e
b1101100010000000 .
b1100000 B
b1011100 C
b1011100 g
b1011100 m
0"
#85
1"
#90
b1 =
b1 Q
b1100100 D
b1100100 i
b1 >
b1 r
b11110000000000000000000000000000 ?
b11110000000000000000000000000000 S
b11110000000000000000000000000000 s
b0 0
b0 3
b11111 /
b11111 :
b11111 o
b10000 2
b10000 1
b1111111110101 -
b11110 ;
b11110 n
b10000 <
b10000 p
b1111111110101100001100011 G
b1111111110101100001100011 f
b1100000 e
b11110101100001111110 .
b1100100 B
b1100000 C
b1100000 g
b1100000 m
0"
#95
1"
#100
b0 5
b0 R
b11 7
b11 P
b1110100 D
b1110100 i
b1111111110111 -
b111 4
b1111111110111100001100011 G
b1111111110111100001100011 f
b1100100 e
b11110111100010000010 .
b1101000 B
b1100100 C
b1100100 g
b1100100 m
0"
#105
1"
#110
b1 5
b1 R
b11111111000000000000000000000000 =
b11111111000000000000000000000000 Q
b10000100 D
b10000100 i
b11111111000000000000000000000000 >
b11111111000000000000000000000000 r
b10001 ?
b10001 S
b10001 s
b11101 /
b11101 :
b11101 o
b11100 ;
b11100 n
b1110111100110 -
b110 4
b1110111100110100001100011 G
b1110111100110100001100011 f
b1110100 e
b11100110100010010000 .
b1111000 B
b1110100 C
b1110100 g
b1110100 m
0"
#115
1"
#120
b0 5
b0 R
b10 7
b10 P
b10001000 D
b10001000 i
b1110111100100 -
b100 4
b1110111100100100001100011 G
b1110111100100100001100011 f
b10000100 e
b11100100100010100000 .
b10001000 B
b10000100 C
b10000100 g
b10000100 m
0"
#125
1"
#130
b1100100 a
b1100100 b
b1100011011000110110001101100011 H
b1100011011000110110001101100011 h
b1100100 I
b1100100 `
b1100100 5
b1100100 R
1A
b1100011 @
b1100011 q
b101 =
b101 Q
b0 7
b0 P
b10001100 D
b10001100 i
b10010001101000101000000000000 >
b10010001101000101000000000000 r
b1011111 ?
b1011111 S
b1011111 s
b101 /
b101 :
b101 o
b10111011000 -
b0 4
b11011 ;
b11011 n
b100000000110 2
b111 1
b111 <
b111 p
b11 +
b10111011000001110000011 G
b10111011000001110000011 f
b10001000 e
b11011000100010001100 .
b10001100 B
b10001000 C
b10001000 g
b10001000 m
0"
#135
1"
#140
b111100001100011 @
b111100001100011 q
b1111000011000110111100001100011 H
b1111000011000110111100001100011 h
b1 F
b1 d
b10010000 D
b10010000 i
b10111011001 -
b1 4
b1000 2
b1000 1
b1000 <
b1000 p
b10111011001010000000011 G
b10111011001010000000011 f
b10001100 e
b11011001100010010000 .
b10010000 B
b10001100 C
b10001100 g
b10001100 m
0"
#145
1"
#150
b1111111110111100001100011 @
b1111111110111100001100011 q
b1111111110111100001100011 H
b1111111110111100001100011 h
b10 F
b10 d
b10010100 D
b10010100 i
b10111011010 -
b10 4
b100000001000 2
b1001 1
b1001 <
b1001 p
b10111011010010010000011 G
b10111011010010010000011 f
b10010000 e
b11011010100010010100 .
b10010100 B
b10010000 C
b10010000 g
b10010000 m
0"
#155
1"
#160
b0 @
b0 q
0A
bx H
bx h
b0 F
b0 d
b11111111111111111111111110101110 9
b11111111111111111111111110101110 c
b1010010100 a
b1010010100 b
b10011000 D
b10011000 i
b100 =
b100 Q
b1010010100 5
b1010010100 R
1E
b1010010100 I
b1010010100 `
b10100001110011001100110101110 >
b10100001110011001100110101110 r
b1010010000 ?
b1010010000 S
b1010010000 s
b11010 /
b11010 :
b11010 o
b11001 ;
b11001 n
b1101011001000 -
b0 4
b100 2
b100 1
b100 <
b100 p
b100011 +
b1101011001000001000100011 G
b1101011001000001000100011 f
b10010100 e
b11001000000010101110 .
b10011000 B
b10010100 C
b10010100 g
b10010100 m
0"
#165
1"
#170
b1010010110 a
b1010010110 I
b1010010110 `
b1 F
b1 d
b1010010110 5
b1010010110 R
b110 =
b110 Q
b10011100 D
b10011100 i
b11111111111111111001100110101110 9
b11111111111111111001100110101110 c
b110 2
b110 1
b1101011001001 -
b1 4
b110 <
b110 p
bx H
bx h
b1101011001001001100100011 G
b1101011001001001100100011 f
b10011000 e
b11001001000010110010 .
b10011100 B
b10011000 C
b10011000 g
b10011000 m
0"
#175
1"
#180
b1010011110 a
b1010011100 b
b1010011110 I
b1010011110 `
b10 F
b10 d
b1010011110 5
b1010011110 R
b1110 =
b1110 Q
b10100001110011001100110101110 9
b10100001110011001100110101110 c
b10100000 D
b10100000 i
bx H
bx h
b1110 2
b1110 1
b1101011001010 -
b10 4
b1110 <
b1110 p
b1101011001010011100100011 G
b1101011001010011100100011 f
b10011100 e
b11001010000010110110 .
b10100000 B
b10011100 C
b10011100 g
b10011100 m
0"
#185
1"
#190
b101001 @
b101001 q
1A
b0 F
b0 d
b0 9
b0 c
b0 a
b0 b
b101 =
b101 Q
b0 I
b0 `
b10100100 D
b10100100 i
b101001 5
b101001 R
0E
b10010001101000101000000000000 >
b10010001101000101000000000000 r
b100100 ?
b100100 S
b100100 s
b10110111101101111011011110110111 H
b10110111101101111011011110110111 h
b101 /
b101 :
b101 o
b10100010000 -
b0 4
b10 ;
b10 n
b100000000010 2
b11 1
b11 <
b11 p
b10011 +
b10100010000000110010011 G
b10100010000000110010011 f
b10100000 e
b10000100010100100 .
b10100100 B
b10100000 C
b10100000 g
b10100000 m
0"
#195
1"
#200
b0 @
b0 q
0A
b0 =
b0 Q
b10101000 D
b10101000 i
b0 5
b0 R
b0 >
b0 r
b0 ?
b0 S
b0 s
1!
0*
b0 /
b0 -
b0 :
b0 o
b0 ;
b0 n
b0 2
b0 1
b0 <
b0 p
b1110011 +
b1110011 G
b1110011 f
b10100100 e
b10100100 .
b10101000 B
b10100100 C
b10100100 g
b10100100 m
0"
#205
1"
#210
bx 7
bx P
bx0 a
bx00 b
bx H
bx h
bx F
bx d
bx 9
bx c
bx I
bx `
bx =
bx Q
bx @
bx q
bx 5
bx R
bx D
bx i
x,
xE
xA
b0x00000 6
b0x00000 O
bx >
bx r
bx ?
bx S
bx s
x!
x*
b0xx 8
bx 0
bx 3
b0xxxxxxxxxxxx /
bx :
bx o
bx -
bx 4
bx ;
bx n
bx0 2
bx 1
bx <
bx p
bx +
bx G
bx f
b10101000 e
bx .
b10101100 B
b10101000 C
b10101000 g
b10101000 m
1#
0"
